backcall==0.2.0
debugpy==1.5.1
decorator==5.1.0
entrypoints==0.3
ERAlchemy==1.2.10
greenlet==1.1.2
ipykernel==6.6.1
ipython==7.31.0
jedi==0.18.1
jupyter-client==7.1.0
jupyter-core==4.9.1
matplotlib-inline==0.1.3
nest-asyncio==1.5.4
parso==0.8.3
pexpect==4.8.0
pickleshare==0.7.5
prompt-toolkit==3.0.24
psycopg2==2.9.3
ptyprocess==0.7.0
Pygments==2.11.1
pygraphviz==1.7
python-dateutil==2.8.2
pyzmq==22.3.0
six==1.16.0
SQLAlchemy==1.4.29
tornado==6.1
traitlets==5.1.1
wcwidth==0.2.5
